<?xml version="1.0" encoding="UTF-8"?>
<!DOCTYPE score-partwise PUBLIC "-//Recordare//DTD MusicXML 3.1 Partwise//EN" "http://www.musicxml.org/dtds/partwise.dtd">
<score-partwise version="3.1">
  <work>
    <work-title>Test Blues Song</work-title>
    </work>
  <identification>
    <encoding>
      <software>MuseScore 2.3.2</software>
      <encoding-date>2019-04-04</encoding-date>
      <supports element="accidental" type="yes"/>
      <supports element="beam" type="yes"/>
      <supports element="print" attribute="new-page" type="yes" value="yes"/>
      <supports element="print" attribute="new-system" type="yes" value="yes"/>
      <supports element="stem" type="yes"/>
      </encoding>
    </identification>
  <defaults>
    <scaling>
      <millimeters>7.05556</millimeters>
      <tenths>40</tenths>
      </scaling>
    <page-layout>
      <page-height>1584</page-height>
      <page-width>1224</page-width>
      <page-margins type="even">
        <left-margin>56.6929</left-margin>
        <right-margin>56.6929</right-margin>
        <top-margin>56.6929</top-margin>
        <bottom-margin>113.386</bottom-margin>
        </page-margins>
      <page-margins type="odd">
        <left-margin>56.6929</left-margin>
        <right-margin>56.6929</right-margin>
        <top-margin>56.6929</top-margin>
        <bottom-margin>113.386</bottom-margin>
        </page-margins>
      </page-layout>
    <word-font font-family="FreeSerif" font-size="10"/>
    <lyric-font font-family="FreeSerif" font-size="11"/>
    </defaults>
  <credit page="1">
    <credit-words default-x="612" default-y="1527.31" justify="center" valign="top" font-size="24">Test Blues Song</credit-words>
    </credit>
  <part-list>
    <score-part id="P1">
      <part-name>Drumset</part-name>
      <part-abbreviation>D. Set</part-abbreviation>
      <score-instrument id="P1-I37">
        <instrument-name>Bass Drum 1</instrument-name>
        </score-instrument>
      <score-instrument id="P1-I39">
        <instrument-name>Instrument 39</instrument-name>
        </score-instrument>
      <score-instrument id="P1-I41">
        <instrument-name>Electric Snare</instrument-name>
        </score-instrument>
      <score-instrument id="P1-I45">
        <instrument-name>Pedal Hi-Hat</instrument-name>
        </score-instrument>
      <score-instrument id="P1-I50">
        <instrument-name>Instrument 50</instrument-name>
        </score-instrument>
      <score-instrument id="P1-I52">
        <instrument-name>Instrument 52</instrument-name>
        </score-instrument>
      <midi-device port="1"></midi-device>
      <midi-instrument id="P1-I37">
        <midi-channel>10</midi-channel>
        <midi-program>1</midi-program>
        <midi-unpitched>37</midi-unpitched>
        <volume>78.7402</volume>
        <pan>0</pan>
        </midi-instrument>
      <midi-instrument id="P1-I39">
        <midi-channel>10</midi-channel>
        <midi-program>1</midi-program>
        <midi-unpitched>39</midi-unpitched>
        <volume>78.7402</volume>
        <pan>0</pan>
        </midi-instrument>
      <midi-instrument id="P1-I41">
        <midi-channel>10</midi-channel>
        <midi-program>1</midi-program>
        <midi-unpitched>41</midi-unpitched>
        <volume>78.7402</volume>
        <pan>0</pan>
        </midi-instrument>
      <midi-instrument id="P1-I45">
        <midi-channel>10</midi-channel>
        <midi-program>1</midi-program>
        <midi-unpitched>45</midi-unpitched>
        <volume>78.7402</volume>
        <pan>0</pan>
        </midi-instrument>
      <midi-instrument id="P1-I50">
        <midi-channel>10</midi-channel>
        <midi-program>1</midi-program>
        <midi-unpitched>50</midi-unpitched>
        <volume>78.7402</volume>
        <pan>0</pan>
        </midi-instrument>
      <midi-instrument id="P1-I52">
        <midi-channel>10</midi-channel>
        <midi-program>1</midi-program>
        <midi-unpitched>52</midi-unpitched>
        <volume>78.7402</volume>
        <pan>0</pan>
        </midi-instrument>
      </score-part>
    </part-list>
  <part id="P1">
    <measure number="1" width="319.96">
      <print>
        <system-layout>
          <system-margins>
            <left-margin>-0.00</left-margin>
            <right-margin>0.00</right-margin>
            </system-margins>
          <top-system-distance>170.00</top-system-distance>
          </system-layout>
        </print>
      <attributes>
        <divisions>3</divisions>
        <key>
          <fifths>0</fifths>
          </key>
        <time>
          <beats>4</beats>
          <beat-type>4</beat-type>
          </time>
        <clef>
          <sign>percussion</sign>
          <line>2</line>
          </clef>
        </attributes>
      <direction placement="above">
        <direction-type>
          <metronome parentheses="no" default-x="-34.50" default-y="40.00">
            <beat-unit>quarter</beat-unit>
            <per-minute>140</per-minute>
            </metronome>
          </direction-type>
        <sound tempo="140"/>
        </direction>
      <note default-x="76.67" default-y="-45.00">
        <unpitched>
          <display-step>D</display-step>
          <display-octave>4</display-octave>
          </unpitched>
        <duration>6</duration>
        <instrument id="P1-I45"/>
        <voice>1</voice>
        <type>half</type>
        <stem>up</stem>
        <notehead>x</notehead>
        </note>
      <note default-x="77.94" default-y="0.00">
        <chord/>
        <unpitched>
          <display-step>F</display-step>
          <display-octave>5</display-octave>
          </unpitched>
        <duration>6</duration>
        <instrument id="P1-I50"/>
        <voice>1</voice>
        <type>half</type>
        <stem>up</stem>
        </note>
      <note>
        <rest/>
        <duration>6</duration>
        <voice>1</voice>
        <type>half</type>
        </note>
      </measure>
    <measure number="2" width="289.59">
      <note>
        <rest/>
        <duration>3</duration>
        <voice>1</voice>
        <type>quarter</type>
        </note>
      <note default-x="88.50" default-y="0.00">
        <unpitched>
          <display-step>F</display-step>
          <display-octave>5</display-octave>
          </unpitched>
        <duration>2</duration>
        <instrument id="P1-I52"/>
        <voice>1</voice>
        <type>quarter</type>
        <time-modification>
          <actual-notes>3</actual-notes>
          <normal-notes>2</normal-notes>
          <normal-type>eighth</normal-type>
          </time-modification>
        <stem>down</stem>
        <notations>
          <tuplet type="start" bracket="yes"/>
          </notations>
        </note>
      <note default-x="150.46" default-y="0.00">
        <unpitched>
          <display-step>F</display-step>
          <display-octave>5</display-octave>
          </unpitched>
        <duration>1</duration>
        <instrument id="P1-I52"/>
        <voice>1</voice>
        <type>eighth</type>
        <time-modification>
          <actual-notes>3</actual-notes>
          <normal-notes>2</normal-notes>
          <normal-type>eighth</normal-type>
          </time-modification>
        <stem>down</stem>
        <notations>
          <tuplet type="stop"/>
          </notations>
        </note>
      <note>
        <rest/>
        <duration>6</duration>
        <voice>1</voice>
        <type>half</type>
        </note>
      </measure>
    <measure number="3" width="246.03">
      <note>
        <rest/>
        <duration>12</duration>
        <voice>1</voice>
        </note>
      </measure>
    <measure number="4" width="255.03">
      <note>
        <rest/>
        <duration>12</duration>
        <voice>1</voice>
        </note>
      <barline location="right">
        <bar-style>light-heavy</bar-style>
        </barline>
      </measure>
    </part>
  </score-partwise>
